%YAML 1.1
%TAG !u! tag:unity3d.com,2011:
--- !u!74 &7400000
AnimationClip:
  m_ObjectHideFlags: 0
  m_CorrespondingSourceObject: {fileID: 0}
  m_PrefabInstance: {fileID: 0}
  m_PrefabAsset: {fileID: 0}
  m_Name: Escudo PES
  serializedVersion: 6
  m_Legacy: 0
  m_Compressed: 0
  m_UseHighQualityCurve: 1
  m_RotationCurves: []
  m_CompressedRotationCurves: []
  m_EulerCurves: []
  m_PositionCurves: []
  m_ScaleCurves: []
  m_FloatCurves: []
  m_PPtrCurves:
  - curve:
    - time: 0
      value: {fileID: 21300000, guid: e35fe20b6ac4f4eaf924e0fe20e45143, type: 3}
    - time: 0.083333336
      value: {fileID: 21300000, guid: cfb2c6582390e49f3a3cf3cb299c846e, type: 3}
    - time: 0.16666667
      value: {fileID: 21300000, guid: 2fa247aa1ca7c4c119b96410aeeb7196, type: 3}
    - time: 0.25
      value: {fileID: 21300000, guid: b990b97481a8d4ae8b0490a6c134f5bb, type: 3}
    - time: 0.33333334
      value: {fileID: 21300000, guid: ec7b3cc921e8f497a892b15aed783f9a, type: 3}
    - time: 0.41666666
      value: {fileID: 21300000, guid: 2654dc92d177445fba174dd36430d1a6, type: 3}
    - time: 0.5
      value: {fileID: 21300000, guid: 3bae619f03599414c9ba78f25bee4fab, type: 3}
    - time: 0.5833333
      value: {fileID: 21300000, guid: 09194efef4d20409981b9a4e085102f4, type: 3}
    - time: 0.6666667
      value: {fileID: 21300000, guid: 7c55db189e02249e99fd8c7ff05edce0, type: 3}
    - time: 0.75
      value: {fileID: 21300000, guid: f4ba49320ecaa4b7db17b0b34e1d6bb5, type: 3}
    - time: 0.8333333
      value: {fileID: 21300000, guid: 9af10716706b545f3b1174eee5c6c0c5, type: 3}
    - time: 0.9166667
      value: {fileID: 21300000, guid: bb30b288b6cc84a619c0174fed1505f6, type: 3}
    - time: 1
      value: {fileID: 21300000, guid: 1b1eafabcebc945ad84f440e6113c354, type: 3}
    attribute: m_Sprite
    path: 
    classID: 114
    script: {fileID: 11500000, guid: fe87c0e1cc204ed48ad3b37840f39efc, type: 3}
  m_SampleRate: 60
  m_WrapMode: 0
  m_Bounds:
    m_Center: {x: 0, y: 0, z: 0}
    m_Extent: {x: 0, y: 0, z: 0}
  m_ClipBindingConstant:
    genericBindings:
    - serializedVersion: 2
      path: 0
      attribute: 2015549526
      script: {fileID: 11500000, guid: fe87c0e1cc204ed48ad3b37840f39efc, type: 3}
      typeID: 114
      customType: 0
      isPPtrCurve: 1
    pptrCurveMapping:
    - {fileID: 21300000, guid: e35fe20b6ac4f4eaf924e0fe20e45143, type: 3}
    - {fileID: 21300000, guid: cfb2c6582390e49f3a3cf3cb299c846e, type: 3}
    - {fileID: 21300000, guid: 2fa247aa1ca7c4c119b96410aeeb7196, type: 3}
    - {fileID: 21300000, guid: b990b97481a8d4ae8b0490a6c134f5bb, type: 3}
    - {fileID: 21300000, guid: ec7b3cc921e8f497a892b15aed783f9a, type: 3}
    - {fileID: 21300000, guid: 2654dc92d177445fba174dd36430d1a6, type: 3}
    - {fileID: 21300000, guid: 3bae619f03599414c9ba78f25bee4fab, type: 3}
    - {fileID: 21300000, guid: 09194efef4d20409981b9a4e085102f4, type: 3}
    - {fileID: 21300000, guid: 7c55db189e02249e99fd8c7ff05edce0, type: 3}
    - {fileID: 21300000, guid: f4ba49320ecaa4b7db17b0b34e1d6bb5, type: 3}
    - {fileID: 21300000, guid: 9af10716706b545f3b1174eee5c6c0c5, type: 3}
    - {fileID: 21300000, guid: bb30b288b6cc84a619c0174fed1505f6, type: 3}
    - {fileID: 21300000, guid: 1b1eafabcebc945ad84f440e6113c354, type: 3}
  m_AnimationClipSettings:
    serializedVersion: 2
    m_AdditiveReferencePoseClip: {fileID: 0}
    m_AdditiveReferencePoseTime: 0
    m_StartTime: 0
    m_StopTime: 1.0166667
    m_OrientationOffsetY: 0
    m_Level: 0
    m_CycleOffset: 0
    m_HasAdditiveReferencePose: 0
    m_LoopTime: 1
    m_LoopBlend: 0
    m_LoopBlendOrientation: 0
    m_LoopBlendPositionY: 0
    m_LoopBlendPositionXZ: 0
    m_KeepOriginalOrientation: 0
    m_KeepOriginalPositionY: 1
    m_KeepOriginalPositionXZ: 0
    m_HeightFromFeet: 0
    m_Mirror: 0
  m_EditorCurves: []
  m_EulerEditorCurves: []
  m_HasGenericRootTransform: 0
  m_HasMotionFloatCurves: 0
  m_Events: []
