%YAML 1.1
%TAG !u! tag:unity3d.com,2011:
--- !u!74 &7400000
AnimationClip:
  m_ObjectHideFlags: 0
  m_CorrespondingSourceObject: {fileID: 0}
  m_PrefabInstance: {fileID: 0}
  m_PrefabAsset: {fileID: 0}
  m_Name: DetalleNomDeEscenario
  serializedVersion: 6
  m_Legacy: 0
  m_Compressed: 0
  m_UseHighQualityCurve: 1
  m_RotationCurves: []
  m_CompressedRotationCurves: []
  m_EulerCurves: []
  m_PositionCurves: []
  m_ScaleCurves: []
  m_FloatCurves: []
  m_PPtrCurves:
  - curve:
    - time: 0
      value: {fileID: 21300000, guid: cf5769003021345d5a1eb664e842151f, type: 3}
    - time: 0.05
      value: {fileID: 21300000, guid: b902e65b8b225464f9e89a91211143d9, type: 3}
    - time: 0.1
      value: {fileID: 21300000, guid: 5e01ecd4b93de471daaa2bcac4477649, type: 3}
    - time: 0.15
      value: {fileID: 21300000, guid: 1f973122a835b4d848dd287c9ef45246, type: 3}
    - time: 0.21666667
      value: {fileID: 21300000, guid: 9956531dcd27e48c184fea8d026a2976, type: 3}
    - time: 0.26666668
      value: {fileID: 21300000, guid: b28e6aaaad873483592e88bd652d4a71, type: 3}
    - time: 0.31666666
      value: {fileID: 21300000, guid: d91089ec98b174b2c811f85d6412baf2, type: 3}
    - time: 0.36666667
      value: {fileID: 21300000, guid: 0ca8db70d843a411d9571c74d7617b39, type: 3}
    - time: 0.41666666
      value: {fileID: 21300000, guid: 89d17fe0646c842e2834a566eb689f09, type: 3}
    - time: 0.46666667
      value: {fileID: 21300000, guid: f046546fe995849ff92bdb71f4d782cd, type: 3}
    - time: 0.53333336
      value: {fileID: 21300000, guid: d41d35ccc9f724691831eb5260b0028e, type: 3}
    - time: 0.5833333
      value: {fileID: 21300000, guid: 4fc9974dec0b54de6b80d493ebcbf5c7, type: 3}
    - time: 0.6333333
      value: {fileID: 21300000, guid: 0eecb340db03746d9bd2e6e1dd513111, type: 3}
    - time: 0.68333334
      value: {fileID: 21300000, guid: 2ffceaa4abb1042d98d5a48ded6885bf, type: 3}
    - time: 0.73333335
      value: {fileID: 21300000, guid: 2912baa4a9abf4354bb68ab5038874bc, type: 3}
    - time: 0.78333336
      value: {fileID: 21300000, guid: 174bf075516a742c9aade8868d1acb0a, type: 3}
    - time: 0.85
      value: {fileID: 21300000, guid: aaaddcd28c0f54f41a7a18fdee5417fb, type: 3}
    - time: 0.9
      value: {fileID: 21300000, guid: 2f57d4e6b6bd84bf8be1f6c35dc0882d, type: 3}
    - time: 0.95
      value: {fileID: 21300000, guid: fd6f6a6b735f04f4c891e621c4014240, type: 3}
    - time: 1
      value: {fileID: 21300000, guid: 03de73167a0114045a5cbc54859e4178, type: 3}
    attribute: m_Sprite
    path: 
    classID: 212
    script: {fileID: 0}
  m_SampleRate: 60
  m_WrapMode: 0
  m_Bounds:
    m_Center: {x: 0, y: 0, z: 0}
    m_Extent: {x: 0, y: 0, z: 0}
  m_ClipBindingConstant:
    genericBindings:
    - serializedVersion: 2
      path: 0
      attribute: 0
      script: {fileID: 0}
      typeID: 212
      customType: 23
      isPPtrCurve: 1
    pptrCurveMapping:
    - {fileID: 21300000, guid: cf5769003021345d5a1eb664e842151f, type: 3}
    - {fileID: 21300000, guid: b902e65b8b225464f9e89a91211143d9, type: 3}
    - {fileID: 21300000, guid: 5e01ecd4b93de471daaa2bcac4477649, type: 3}
    - {fileID: 21300000, guid: 1f973122a835b4d848dd287c9ef45246, type: 3}
    - {fileID: 21300000, guid: 9956531dcd27e48c184fea8d026a2976, type: 3}
    - {fileID: 21300000, guid: b28e6aaaad873483592e88bd652d4a71, type: 3}
    - {fileID: 21300000, guid: d91089ec98b174b2c811f85d6412baf2, type: 3}
    - {fileID: 21300000, guid: 0ca8db70d843a411d9571c74d7617b39, type: 3}
    - {fileID: 21300000, guid: 89d17fe0646c842e2834a566eb689f09, type: 3}
    - {fileID: 21300000, guid: f046546fe995849ff92bdb71f4d782cd, type: 3}
    - {fileID: 21300000, guid: d41d35ccc9f724691831eb5260b0028e, type: 3}
    - {fileID: 21300000, guid: 4fc9974dec0b54de6b80d493ebcbf5c7, type: 3}
    - {fileID: 21300000, guid: 0eecb340db03746d9bd2e6e1dd513111, type: 3}
    - {fileID: 21300000, guid: 2ffceaa4abb1042d98d5a48ded6885bf, type: 3}
    - {fileID: 21300000, guid: 2912baa4a9abf4354bb68ab5038874bc, type: 3}
    - {fileID: 21300000, guid: 174bf075516a742c9aade8868d1acb0a, type: 3}
    - {fileID: 21300000, guid: aaaddcd28c0f54f41a7a18fdee5417fb, type: 3}
    - {fileID: 21300000, guid: 2f57d4e6b6bd84bf8be1f6c35dc0882d, type: 3}
    - {fileID: 21300000, guid: fd6f6a6b735f04f4c891e621c4014240, type: 3}
    - {fileID: 21300000, guid: 03de73167a0114045a5cbc54859e4178, type: 3}
  m_AnimationClipSettings:
    serializedVersion: 2
    m_AdditiveReferencePoseClip: {fileID: 0}
    m_AdditiveReferencePoseTime: 0
    m_StartTime: 0
    m_StopTime: 1.0166667
    m_OrientationOffsetY: 0
    m_Level: 0
    m_CycleOffset: 0
    m_HasAdditiveReferencePose: 0
    m_LoopTime: 1
    m_LoopBlend: 0
    m_LoopBlendOrientation: 0
    m_LoopBlendPositionY: 0
    m_LoopBlendPositionXZ: 0
    m_KeepOriginalOrientation: 0
    m_KeepOriginalPositionY: 1
    m_KeepOriginalPositionXZ: 0
    m_HeightFromFeet: 0
    m_Mirror: 0
  m_EditorCurves: []
  m_EulerEditorCurves: []
  m_HasGenericRootTransform: 0
  m_HasMotionFloatCurves: 0
  m_Events: []
