%YAML 1.1
%TAG !u! tag:unity3d.com,2011:
--- !u!74 &7400000
AnimationClip:
  m_ObjectHideFlags: 0
  m_CorrespondingSourceObject: {fileID: 0}
  m_PrefabInstance: {fileID: 0}
  m_PrefabAsset: {fileID: 0}
  m_Name: Anillo De META
  serializedVersion: 6
  m_Legacy: 0
  m_Compressed: 0
  m_UseHighQualityCurve: 1
  m_RotationCurves: []
  m_CompressedRotationCurves: []
  m_EulerCurves: []
  m_PositionCurves: []
  m_ScaleCurves: []
  m_FloatCurves: []
  m_PPtrCurves:
  - curve:
    - time: 0
      value: {fileID: 21300000, guid: e31335c4409474f75b4dba9010517a91, type: 3}
    - time: 0.06666667
      value: {fileID: 21300000, guid: abed47ebc0c554310a659b170c91d1b1, type: 3}
    - time: 0.1
      value: {fileID: 21300000, guid: 2bf7c2366a61c46a4a65890c6029be70, type: 3}
    - time: 0.18333334
      value: {fileID: 21300000, guid: 44fc4e23c082e42a4a3059683f774130, type: 3}
    - time: 0.23333333
      value: {fileID: 21300000, guid: ee75e74023d7d4bdda03def5ca942152, type: 3}
    - time: 0.31666666
      value: {fileID: 21300000, guid: 25c25dbb7d31f49bfa2fb53fb84b2d2d, type: 3}
    - time: 0.35
      value: {fileID: 21300000, guid: 484a55200efdb41df9b5b14054586e07, type: 3}
    - time: 0.41666666
      value: {fileID: 21300000, guid: 3fa572003c404416a9e40a44588d4f1b, type: 3}
    - time: 0.5
      value: {fileID: 21300000, guid: e31335c4409474f75b4dba9010517a91, type: 3}
    attribute: m_Sprite
    path: 
    classID: 212
    script: {fileID: 0}
  m_SampleRate: 60
  m_WrapMode: 0
  m_Bounds:
    m_Center: {x: 0, y: 0, z: 0}
    m_Extent: {x: 0, y: 0, z: 0}
  m_ClipBindingConstant:
    genericBindings:
    - serializedVersion: 2
      path: 0
      attribute: 0
      script: {fileID: 0}
      typeID: 212
      customType: 23
      isPPtrCurve: 1
    pptrCurveMapping:
    - {fileID: 21300000, guid: e31335c4409474f75b4dba9010517a91, type: 3}
    - {fileID: 21300000, guid: abed47ebc0c554310a659b170c91d1b1, type: 3}
    - {fileID: 21300000, guid: 2bf7c2366a61c46a4a65890c6029be70, type: 3}
    - {fileID: 21300000, guid: 44fc4e23c082e42a4a3059683f774130, type: 3}
    - {fileID: 21300000, guid: ee75e74023d7d4bdda03def5ca942152, type: 3}
    - {fileID: 21300000, guid: 25c25dbb7d31f49bfa2fb53fb84b2d2d, type: 3}
    - {fileID: 21300000, guid: 484a55200efdb41df9b5b14054586e07, type: 3}
    - {fileID: 21300000, guid: 3fa572003c404416a9e40a44588d4f1b, type: 3}
    - {fileID: 21300000, guid: e31335c4409474f75b4dba9010517a91, type: 3}
  m_AnimationClipSettings:
    serializedVersion: 2
    m_AdditiveReferencePoseClip: {fileID: 0}
    m_AdditiveReferencePoseTime: 0
    m_StartTime: 0
    m_StopTime: 0.51666665
    m_OrientationOffsetY: 0
    m_Level: 0
    m_CycleOffset: 0
    m_HasAdditiveReferencePose: 0
    m_LoopTime: 1
    m_LoopBlend: 0
    m_LoopBlendOrientation: 0
    m_LoopBlendPositionY: 0
    m_LoopBlendPositionXZ: 0
    m_KeepOriginalOrientation: 0
    m_KeepOriginalPositionY: 1
    m_KeepOriginalPositionXZ: 0
    m_HeightFromFeet: 0
    m_Mirror: 0
  m_EditorCurves: []
  m_EulerEditorCurves: []
  m_HasGenericRootTransform: 0
  m_HasMotionFloatCurves: 0
  m_Events: []
