%YAML 1.1
%TAG !u! tag:unity3d.com,2011:
--- !u!1 &2552191553749900476
GameObject:
  m_ObjectHideFlags: 0
  m_CorrespondingSourceObject: {fileID: 0}
  m_PrefabInstance: {fileID: 0}
  m_PrefabAsset: {fileID: 0}
  serializedVersion: 6
  m_Component:
  - component: {fileID: 5633633078296849281}
  - component: {fileID: 4679898411698914385}
  m_Layer: 31
  m_Name: Paleta plataformas Crisis City
  m_TagString: Untagged
  m_Icon: {fileID: 0}
  m_NavMeshLayer: 0
  m_StaticEditorFlags: 0
  m_IsActive: 1
--- !u!4 &5633633078296849281
Transform:
  m_ObjectHideFlags: 0
  m_CorrespondingSourceObject: {fileID: 0}
  m_PrefabInstance: {fileID: 0}
  m_PrefabAsset: {fileID: 0}
  m_GameObject: {fileID: 2552191553749900476}
  m_LocalRotation: {x: 0, y: 0, z: 0, w: 1}
  m_LocalPosition: {x: 0, y: 0, z: 0}
  m_LocalScale: {x: 1, y: 1, z: 1}
  m_Children:
  - {fileID: 888274618705628376}
  m_Father: {fileID: 0}
  m_RootOrder: 0
  m_LocalEulerAnglesHint: {x: 0, y: 0, z: 0}
--- !u!156049354 &4679898411698914385
Grid:
  m_ObjectHideFlags: 0
  m_CorrespondingSourceObject: {fileID: 0}
  m_PrefabInstance: {fileID: 0}
  m_PrefabAsset: {fileID: 0}
  m_GameObject: {fileID: 2552191553749900476}
  m_Enabled: 1
  m_CellSize: {x: 1, y: 1, z: 0}
  m_CellGap: {x: 0, y: 0, z: 0}
  m_CellLayout: 0
  m_CellSwizzle: 0
--- !u!1 &6184580482072946742
GameObject:
  m_ObjectHideFlags: 0
  m_CorrespondingSourceObject: {fileID: 0}
  m_PrefabInstance: {fileID: 0}
  m_PrefabAsset: {fileID: 0}
  serializedVersion: 6
  m_Component:
  - component: {fileID: 888274618705628376}
  - component: {fileID: 4830458403333515292}
  - component: {fileID: 2519487728930298679}
  m_Layer: 0
  m_Name: Layer1
  m_TagString: Untagged
  m_Icon: {fileID: 0}
  m_NavMeshLayer: 0
  m_StaticEditorFlags: 0
  m_IsActive: 1
--- !u!4 &888274618705628376
Transform:
  m_ObjectHideFlags: 0
  m_CorrespondingSourceObject: {fileID: 0}
  m_PrefabInstance: {fileID: 0}
  m_PrefabAsset: {fileID: 0}
  m_GameObject: {fileID: 6184580482072946742}
  m_LocalRotation: {x: -0, y: -0, z: -0, w: 1}
  m_LocalPosition: {x: 0, y: 0, z: 0}
  m_LocalScale: {x: 1, y: 1, z: 1}
  m_Children: []
  m_Father: {fileID: 5633633078296849281}
  m_RootOrder: 0
  m_LocalEulerAnglesHint: {x: 0, y: 0, z: 0}
--- !u!1839735485 &4830458403333515292
Tilemap:
  m_ObjectHideFlags: 0
  m_CorrespondingSourceObject: {fileID: 0}
  m_PrefabInstance: {fileID: 0}
  m_PrefabAsset: {fileID: 0}
  m_GameObject: {fileID: 6184580482072946742}
  m_Enabled: 1
  m_Tiles:
  - first: {x: -1, y: -3, z: 0}
    second:
      serializedVersion: 2
      m_TileIndex: 9
      m_TileSpriteIndex: 9
      m_TileMatrixIndex: 0
      m_TileColorIndex: 0
      m_TileObjectToInstantiateIndex: 65535
      dummyAlignment: 0
      m_AllTileFlags: 1073741825
  - first: {x: 0, y: -3, z: 0}
    second:
      serializedVersion: 2
      m_TileIndex: 10
      m_TileSpriteIndex: 10
      m_TileMatrixIndex: 0
      m_TileColorIndex: 0
      m_TileObjectToInstantiateIndex: 65535
      dummyAlignment: 0
      m_AllTileFlags: 1073741825
  - first: {x: 1, y: -3, z: 0}
    second:
      serializedVersion: 2
      m_TileIndex: 11
      m_TileSpriteIndex: 11
      m_TileMatrixIndex: 0
      m_TileColorIndex: 0
      m_TileObjectToInstantiateIndex: 65535
      dummyAlignment: 0
      m_AllTileFlags: 1073741825
  - first: {x: -1, y: -2, z: 0}
    second:
      serializedVersion: 2
      m_TileIndex: 6
      m_TileSpriteIndex: 6
      m_TileMatrixIndex: 0
      m_TileColorIndex: 0
      m_TileObjectToInstantiateIndex: 65535
      dummyAlignment: 0
      m_AllTileFlags: 1073741825
  - first: {x: 0, y: -2, z: 0}
    second:
      serializedVersion: 2
      m_TileIndex: 7
      m_TileSpriteIndex: 7
      m_TileMatrixIndex: 0
      m_TileColorIndex: 0
      m_TileObjectToInstantiateIndex: 65535
      dummyAlignment: 0
      m_AllTileFlags: 1073741825
  - first: {x: 1, y: -2, z: 0}
    second:
      serializedVersion: 2
      m_TileIndex: 8
      m_TileSpriteIndex: 8
      m_TileMatrixIndex: 0
      m_TileColorIndex: 0
      m_TileObjectToInstantiateIndex: 65535
      dummyAlignment: 0
      m_AllTileFlags: 1073741825
  - first: {x: -1, y: -1, z: 0}
    second:
      serializedVersion: 2
      m_TileIndex: 3
      m_TileSpriteIndex: 3
      m_TileMatrixIndex: 0
      m_TileColorIndex: 0
      m_TileObjectToInstantiateIndex: 65535
      dummyAlignment: 0
      m_AllTileFlags: 1073741825
  - first: {x: 0, y: -1, z: 0}
    second:
      serializedVersion: 2
      m_TileIndex: 4
      m_TileSpriteIndex: 4
      m_TileMatrixIndex: 0
      m_TileColorIndex: 0
      m_TileObjectToInstantiateIndex: 65535
      dummyAlignment: 0
      m_AllTileFlags: 1073741825
  - first: {x: 1, y: -1, z: 0}
    second:
      serializedVersion: 2
      m_TileIndex: 5
      m_TileSpriteIndex: 5
      m_TileMatrixIndex: 0
      m_TileColorIndex: 0
      m_TileObjectToInstantiateIndex: 65535
      dummyAlignment: 0
      m_AllTileFlags: 1073741825
  - first: {x: -1, y: 0, z: 0}
    second:
      serializedVersion: 2
      m_TileIndex: 0
      m_TileSpriteIndex: 0
      m_TileMatrixIndex: 0
      m_TileColorIndex: 0
      m_TileObjectToInstantiateIndex: 65535
      dummyAlignment: 0
      m_AllTileFlags: 1073741825
  - first: {x: 0, y: 0, z: 0}
    second:
      serializedVersion: 2
      m_TileIndex: 1
      m_TileSpriteIndex: 1
      m_TileMatrixIndex: 0
      m_TileColorIndex: 0
      m_TileObjectToInstantiateIndex: 65535
      dummyAlignment: 0
      m_AllTileFlags: 1073741825
  - first: {x: 1, y: 0, z: 0}
    second:
      serializedVersion: 2
      m_TileIndex: 2
      m_TileSpriteIndex: 2
      m_TileMatrixIndex: 0
      m_TileColorIndex: 0
      m_TileObjectToInstantiateIndex: 65535
      dummyAlignment: 0
      m_AllTileFlags: 1073741825
  m_AnimatedTiles: {}
  m_TileAssetArray:
  - m_RefCount: 1
    m_Data: {fileID: 11400000, guid: aab881b6028b74c028e281c1937763fd, type: 2}
  - m_RefCount: 1
    m_Data: {fileID: 11400000, guid: f0417dbdf8be240aeab60744985f7ce4, type: 2}
  - m_RefCount: 1
    m_Data: {fileID: 11400000, guid: 4184d6f75167b49998adb0e66daa8b09, type: 2}
  - m_RefCount: 1
    m_Data: {fileID: 11400000, guid: ecdf8e459154546faac38304cc3e1279, type: 2}
  - m_RefCount: 1
    m_Data: {fileID: 11400000, guid: 6532f1e61b47a4ae79191ef596bcb9fd, type: 2}
  - m_RefCount: 1
    m_Data: {fileID: 11400000, guid: 5c28dea2ff9ff4262bc080e366d8c6ad, type: 2}
  - m_RefCount: 1
    m_Data: {fileID: 11400000, guid: 432596bb4a5c44ed6bd6bc7ff7d637d3, type: 2}
  - m_RefCount: 1
    m_Data: {fileID: 11400000, guid: 7f337c6c7c7484988b6535b645f73e57, type: 2}
  - m_RefCount: 1
    m_Data: {fileID: 11400000, guid: 9eacf9c0362094dbf82a64db52b54966, type: 2}
  - m_RefCount: 1
    m_Data: {fileID: 11400000, guid: 5daf2016c519d490bbb67717cc217aa5, type: 2}
  - m_RefCount: 1
    m_Data: {fileID: 11400000, guid: 5fbde88f1a459420293650bbac514b45, type: 2}
  - m_RefCount: 1
    m_Data: {fileID: 11400000, guid: 90b0d63adf7f84a03bbe3ccdc26f68bb, type: 2}
  m_TileSpriteArray:
  - m_RefCount: 1
    m_Data: {fileID: 21300000, guid: 721307243a72e45a0bd468031be0d079, type: 3}
  - m_RefCount: 1
    m_Data: {fileID: 21300000, guid: b707e8d9d94d54b28a166b877ed0c1c3, type: 3}
  - m_RefCount: 1
    m_Data: {fileID: 21300000, guid: 84153ae5b26be42ed83cd4154576c7a8, type: 3}
  - m_RefCount: 1
    m_Data: {fileID: 21300000, guid: 76c9efec8562f4b78b42952548ee5d07, type: 3}
  - m_RefCount: 1
    m_Data: {fileID: 21300000, guid: 1d587f8b0746b45ce9394d605596f7e3, type: 3}
  - m_RefCount: 1
    m_Data: {fileID: 21300000, guid: dd49a2969da194c99bb5b758cabc3508, type: 3}
  - m_RefCount: 1
    m_Data: {fileID: 21300000, guid: 12acd1318b0294702aa49e4e99d8d68b, type: 3}
  - m_RefCount: 1
    m_Data: {fileID: 21300000, guid: 8879f1cb3b1ca477eb969c576ba2debb, type: 3}
  - m_RefCount: 1
    m_Data: {fileID: 21300000, guid: cc371b1775764431a94fa5534d5d6ead, type: 3}
  - m_RefCount: 1
    m_Data: {fileID: 21300000, guid: 10742eb3888214cd8930e3ea7b59bfd6, type: 3}
  - m_RefCount: 1
    m_Data: {fileID: 21300000, guid: 34509fc3aac1e4ac7842aa3064b6a144, type: 3}
  - m_RefCount: 1
    m_Data: {fileID: 21300000, guid: 67990d4662ed247399c1527bc17412f4, type: 3}
  m_TileMatrixArray:
  - m_RefCount: 12
    m_Data:
      e00: 1
      e01: 0
      e02: 0
      e03: 0
      e10: 0
      e11: 1
      e12: 0
      e13: 0
      e20: 0
      e21: 0
      e22: 1
      e23: 0
      e30: 0
      e31: 0
      e32: 0
      e33: 1
  m_TileColorArray:
  - m_RefCount: 12
    m_Data: {r: 1, g: 1, b: 1, a: 1}
  - m_RefCount: 0
    m_Data: {r: 0.9895676, g: 0.43001533, b: 0.4488573, a: 1}
  - m_RefCount: 0
    m_Data: {r: 0.8209494, g: 0.37787852, b: 0.43837368, a: 1}
  - m_RefCount: 0
    m_Data: {r: 0.7129696, g: 0.40962216, b: 0.47427893, a: 1}
  - m_RefCount: 0
    m_Data: {r: 0.9877124, g: 0.6767289, b: 0.69096047, a: 1}
  - m_RefCount: 0
    m_Data: {r: 0.85447234, g: 0.40815967, b: 0.5246965, a: 1}
  - m_RefCount: 0
    m_Data: {r: 0.81506497, g: 0.40129572, b: 0.41269732, a: 1}
  - m_RefCount: 0
    m_Data: {r: 0.73686063, g: 0.39130545, b: 0.47811836, a: 1}
  - m_RefCount: 0
    m_Data: {r: 0.846895, g: 0.3706007, b: 0.4593767, a: 1}
  - m_RefCount: 0
    m_Data: {r: 0.88360745, g: 0.40106797, b: 0.4314561, a: 1}
  - m_RefCount: 0
    m_Data: {r: 0.7564852, g: 0.33846852, b: 0.4051875, a: 1}
  - m_RefCount: 0
    m_Data: {r: 0.9319616, g: 0.5047332, b: 0.5666098, a: 1}
  m_TileObjectToInstantiateArray: []
  m_AnimationFrameRate: 1
  m_Color: {r: 1, g: 1, b: 1, a: 1}
  m_Origin: {x: -1, y: -3, z: 0}
  m_Size: {x: 3, y: 4, z: 1}
  m_TileAnchor: {x: 0.5, y: 0.5, z: 0}
  m_TileOrientation: 0
  m_TileOrientationMatrix:
    e00: 1
    e01: 0
    e02: 0
    e03: 0
    e10: 0
    e11: 1
    e12: 0
    e13: 0
    e20: 0
    e21: 0
    e22: 1
    e23: 0
    e30: 0
    e31: 0
    e32: 0
    e33: 1
--- !u!483693784 &2519487728930298679
TilemapRenderer:
  m_ObjectHideFlags: 0
  m_CorrespondingSourceObject: {fileID: 0}
  m_PrefabInstance: {fileID: 0}
  m_PrefabAsset: {fileID: 0}
  m_GameObject: {fileID: 6184580482072946742}
  m_Enabled: 1
  m_CastShadows: 0
  m_ReceiveShadows: 0
  m_DynamicOccludee: 0
  m_MotionVectors: 1
  m_LightProbeUsage: 0
  m_ReflectionProbeUsage: 0
  m_RayTracingMode: 0
  m_RayTraceProcedural: 0
  m_RenderingLayerMask: 1
  m_RendererPriority: 0
  m_Materials:
  - {fileID: 10754, guid: 0000000000000000f000000000000000, type: 0}
  m_StaticBatchInfo:
    firstSubMesh: 0
    subMeshCount: 0
  m_StaticBatchRoot: {fileID: 0}
  m_ProbeAnchor: {fileID: 0}
  m_LightProbeVolumeOverride: {fileID: 0}
  m_ScaleInLightmap: 1
  m_ReceiveGI: 1
  m_PreserveUVs: 0
  m_IgnoreNormalsForChartDetection: 0
  m_ImportantGI: 0
  m_StitchLightmapSeams: 1
  m_SelectedEditorRenderState: 0
  m_MinimumChartSize: 4
  m_AutoUVMaxDistance: 0.5
  m_AutoUVMaxAngle: 89
  m_LightmapParameters: {fileID: 0}
  m_SortingLayerID: 0
  m_SortingLayer: 0
  m_SortingOrder: 0
  m_ChunkSize: {x: 32, y: 32, z: 32}
  m_ChunkCullingBounds: {x: 0, y: 0, z: 0}
  m_MaxChunkCount: 16
  m_MaxFrameAge: 16
  m_SortOrder: 0
  m_Mode: 0
  m_DetectChunkCullingBounds: 0
  m_MaskInteraction: 0
--- !u!114 &8080742056774120149
MonoBehaviour:
  m_ObjectHideFlags: 0
  m_CorrespondingSourceObject: {fileID: 0}
  m_PrefabInstance: {fileID: 0}
  m_PrefabAsset: {fileID: 0}
  m_GameObject: {fileID: 0}
  m_Enabled: 1
  m_EditorHideFlags: 0
  m_Script: {fileID: 12395, guid: 0000000000000000e000000000000000, type: 0}
  m_Name: Palette Settings
  m_EditorClassIdentifier: 
  cellSizing: 0
  m_TransparencySortMode: 0
  m_TransparencySortAxis: {x: 0, y: 0, z: 1}
